<svg xmlns="http://www.w3.org/2000/svg" width="99" height="100" viewBox="0 0 99 100">
  <metadata><?xpacket begin="﻿" id="W5M0MpCehiHzreSzNTczkc9d"?>
<x:xmpmeta xmlns:x="adobe:ns:meta/" x:xmptk="Adobe XMP Core 5.6-c142 79.160924, 2017/07/13-01:06:39        ">
   <rdf:RDF xmlns:rdf="http://www.w3.org/1999/02/22-rdf-syntax-ns#">
      <rdf:Description rdf:about=""/>
   </rdf:RDF>
</x:xmpmeta>
                                                                                                    
                                                                                                    
                                                                                                    
                                                                                                    
                                                                                                    
                                                                                                    
                                                                                                    
                                                                                                    
                                                                                                    
                                                                                                    
                                                                                                    
                                                                                                    
                                                                                                    
                                                                                                    
                                                                                                    
                                                                                                    
                                                                                                    
                                                                                                    
                                                                                                    
                                                                                                    
                           
<?xpacket end="w"?></metadata>
<defs>
    <style>
      .cls-1 {
        fill: #fff;
        fill-rule: evenodd;
      }
    </style>
  </defs>
  <path class="cls-1" d="M90.567,59.957a1.262,1.262,0,0,0-.446-2.443,1.246,1.246,0,0,0-.441.08l-4.7,1.759a1.247,1.247,0,0,0-.706.659h0a1.254,1.254,0,0,0-.033.965,1.29,1.29,0,0,0,1.626.739ZM17.507,16.682a1.262,1.262,0,1,0-1.787,1.783,1.308,1.308,0,0,0,1.785,0A1.26,1.26,0,0,0,17.507,16.682ZM87.493,69.817h6.243a1.261,1.261,0,1,0,0-2.523H87.493A1.261,1.261,0,1,0,87.493,69.817Zm3.78,8a1.25,1.25,0,0,0-.707-0.66l-4.7-1.759a1.252,1.252,0,0,0-.442-0.08,1.269,1.269,0,0,0-1.184.819,1.262,1.262,0,0,0,.739,1.624l4.7,1.759a1.287,1.287,0,0,0,1.625-.739A1.25,1.25,0,0,0,91.273,77.815ZM83.145,51.857l-4.633-7,0.39-.349a22.916,22.916,0,0,0,7.735-17.3A23.274,23.274,0,0,0,63.375,3.974l-16.813,0a43.277,43.277,0,0,0-24.307,7.391,1.209,1.209,0,0,0-.328,1.681,1.214,1.214,0,0,0,1.684.328A40.777,40.777,0,0,1,46.466,6.4a41.466,41.466,0,0,1,7.311.648A19.389,19.389,0,0,1,67.53,17.06,18.976,18.976,0,0,1,68.2,33.716,34.32,34.32,0,0,1,49.007,51.935,18.776,18.776,0,0,0,36.9,70.667a10.076,10.076,0,0,1-5.424,9.777,9.434,9.434,0,0,1-10.529-.95,40.9,40.9,0,0,1-8.533-54.932A1.213,1.213,0,0,0,10.4,23.208a43.322,43.322,0,0,0,9.036,58.183,12.048,12.048,0,0,0,4.645,2.292l0.681,0.167-4.2,10.3a1.211,1.211,0,0,0,.665,1.579,1.23,1.23,0,0,0,1.581-.665l4.507-11.042L27.691,84a12.269,12.269,0,0,0,4.916-1.409,12.455,12.455,0,0,0,6.715-12.043A16.274,16.274,0,0,1,49.868,54.2,36.742,36.742,0,0,0,70.417,34.689,21.627,21.627,0,0,0,71.63,31.1l0.634-2.6,0.549,2.622A36.946,36.946,0,0,1,73.6,38.7v2.78a1.21,1.21,0,0,0,.2.669L81.447,53.7l-6.513,4.467a1.211,1.211,0,0,0-.527,1v5.751L68.253,67.7a1.211,1.211,0,0,0,.069,2.237l6.085,2.3v4.342a5.024,5.024,0,0,1-5.02,5.015H51.826a1.212,1.212,0,1,0,0,2.424h5.433L53.323,94.169a1.21,1.21,0,0,0,.692,1.568,1.238,1.238,0,0,0,1.57-.692l4.277-11.023h9.525a7.452,7.452,0,0,0,7.447-7.44V71.4a1.217,1.217,0,0,0-.785-1.131L71.914,68.7l4.064-1.836a1.241,1.241,0,0,0,.856-1.16V59.8l5.5-3.769A3.051,3.051,0,0,0,83.145,51.857Zm-5.979-9.033-1.134-1.711V38.7a39.535,39.535,0,0,0-4.608-18.477l-0.047-.114A21.989,21.989,0,0,0,61.762,7.52L59.92,6.4h3.455A20.847,20.847,0,0,1,84.209,27.208a20.569,20.569,0,0,1-6.52,15.122Z"/>
</svg>
