<svg xmlns="http://www.w3.org/2000/svg" width="99" height="100" viewBox="0 0 99 100">
  <metadata><?xpacket begin="﻿" id="W5M0MpCehiHzreSzNTczkc9d"?>
<x:xmpmeta xmlns:x="adobe:ns:meta/" x:xmptk="Adobe XMP Core 5.6-c142 79.160924, 2017/07/13-01:06:39        ">
   <rdf:RDF xmlns:rdf="http://www.w3.org/1999/02/22-rdf-syntax-ns#">
      <rdf:Description rdf:about=""/>
   </rdf:RDF>
</x:xmpmeta>
                                                                                                    
                                                                                                    
                                                                                                    
                                                                                                    
                                                                                                    
                                                                                                    
                                                                                                    
                                                                                                    
                                                                                                    
                                                                                                    
                                                                                                    
                                                                                                    
                                                                                                    
                                                                                                    
                                                                                                    
                                                                                                    
                                                                                                    
                                                                                                    
                                                                                                    
                                                                                                    
                           
<?xpacket end="w"?></metadata>
<defs>
    <style>
      .cls-1 {
        fill: #fff;
        fill-rule: evenodd;
      }
    </style>
  </defs>
  <path class="cls-1" d="M33.062,34.993a5.3,5.3,0,0,0,4.134-1.56,5.4,5.4,0,0,0,1.547-4.171,1.083,1.083,0,1,0-2.161.151,3.2,3.2,0,0,1-.917,2.472,3.152,3.152,0,0,1-2.454.925l-0.074,0A1.094,1.094,0,0,0,33.062,34.993Zm-7.082,2.9a1.076,1.076,0,0,0-1.531,0,1.1,1.1,0,0,0,0,1.548L26.1,41.1a1.089,1.089,0,0,0,1.531-1.548ZM44.8,22.238l-1.649-1.663a1.076,1.076,0,0,0-1.531,0,1.1,1.1,0,0,0,0,1.548l1.649,1.663A1.088,1.088,0,1,0,44.8,22.238Zm2.738,76.816a6.471,6.471,0,0,0,5.009.324,6.546,6.546,0,0,0,3.78-3.359c2.574-5.3,6.555-13.173,9.216-17.946l0.079-.142,0.157-.04a20.305,20.305,0,0,0,7.162-3.444l0.4-.294,0.176,0.463C76.5,82.509,80.047,92.678,80.4,94.4a6.584,6.584,0,0,0,2.808,4.225,6.491,6.491,0,0,0,4.922.977,6.633,6.633,0,0,0,5.154-7.8c-0.145-.738-0.537-2.1-1.163-4.052-2.412-7.512-7.879-22.325-10.381-27.764L81.7,59.893l0.011-.1a13.165,13.165,0,0,0-2.839-10.012L78.809,49.7l-0.019-.1A5.082,5.082,0,0,0,77,46.62a52.166,52.166,0,0,0-10.776-6.629l-0.43-.2,0.293-.373c5.3-6.746,12.649-17.546,14.833-21.257a6.656,6.656,0,0,0,.3-6.248,6.556,6.556,0,0,0-4.9-3.779,1.069,1.069,0,0,0-.806.185,1.1,1.1,0,0,0,.443,1.972,4.479,4.479,0,0,1,3.3,2.547,4.541,4.541,0,0,1-.205,4.205C76.734,21,69.018,32.262,63.906,38.675l-0.175.219-0.259-.106a49.8,49.8,0,0,0-6.045-2.037l-0.375-.1,0.11-.372a23.6,23.6,0,0,0,.874-4.573l0.009-.109,0.067-.087C61.981,26.464,68,17.987,70.972,13.091a1.1,1.1,0,0,0-.358-1.505,1.076,1.076,0,0,0-1.488.362c-2.5,4.11-7.074,10.628-10.5,15.263l-0.555.75-0.118-.927a19.824,19.824,0,0,0-1.129-4.541l-0.086-.226,0.169-.173a8.236,8.236,0,0,0-.029-11.521A8.1,8.1,0,0,0,47.34,9.137l-0.26.14-0.2-.22A39.972,39.972,0,0,0,36.432.564,3.768,3.768,0,0,0,32.919.52a3.862,3.862,0,0,0-2.106,2.9l-0.1.719-0.37-.048C26.013,3.528,21.849,5.241,17.826,6.9c-1.215.5-2.471,1.018-3.7,1.454a2.952,2.952,0,0,0-1.8,1.816c-0.434,1.236-.946,2.5-1.442,3.727C9.244,17.953,7.545,22.149,8.1,26.52l0.047,0.369-0.713.1a3.9,3.9,0,0,0-2.833,5.671A40.216,40.216,0,0,0,13.03,43.206l0.217,0.2-0.137.259a8.284,8.284,0,0,0,1.421,9.617,8.068,8.068,0,0,0,11.41.04l0.173-.172,0.227,0.088a20.139,20.139,0,0,0,9.59,1.181l0.576-.063-0.178.553c-2.083,6.461-7.5,19.988-8.917,22.268a6.694,6.694,0,0,0-.307,6.547,6.6,6.6,0,0,0,5.339,3.685,1.088,1.088,0,0,0,1.175-.992,1.093,1.093,0,0,0-.248-0.8,1.075,1.075,0,0,0-.734-0.387,4.447,4.447,0,0,1-3.6-2.487,4.5,4.5,0,0,1,.208-4.4c1.67-2.689,7.86-18.323,9.6-24.244l0.06-.206,0.207-.053q0.459-.118.912-0.254L40.4,53.47l0.1,0.378A55.478,55.478,0,0,0,44.6,64.573l0.073,0.147-0.056.153a181.632,181.632,0,0,1-7.351,17.493,1.09,1.09,0,0,0,.027,1.079,1.116,1.116,0,0,0,1.882-.043c1.477-2.776,4.185-9.108,6.583-15.4l0.278-.73,0.395,0.674a45.794,45.794,0,0,0,3.847,5.628,5.086,5.086,0,0,0,1.581,1.309l0.333,0.177-0.177.334c-2.46,4.63-5.534,10.765-7.489,14.79A6.66,6.66,0,0,0,47.536,99.054Zm42.742-10L90.355,89.3c0.417,1.342.69,2.328,0.811,2.932a4.423,4.423,0,0,1-4.329,5.311A4.349,4.349,0,0,1,84.41,96.8a4.434,4.434,0,0,1-1.885-2.841c-0.083-.4-0.3-1.17-0.655-2.282l-0.084-.264,0.228-.158a14.822,14.822,0,0,1,8.007-2.218ZM47.315,11.788a5.923,5.923,0,0,1,8.029.333,6.033,6.033,0,0,1,.743,7.544l-0.33.5-0.3-.514A18.055,18.055,0,0,0,47.4,12.417l-0.537-.244ZM6.517,31.632A1.677,1.677,0,0,1,6.5,30.083a1.718,1.718,0,0,1,1.268-.93A7.7,7.7,0,0,1,9.2,29.016a1.107,1.107,0,0,0,1.07-.3,1.093,1.093,0,0,0,.265-1.043c-1.147-4.29.547-8.475,2.342-12.905,0.51-1.26,1.038-2.562,1.5-3.867a0.787,0.787,0,0,1,.48-0.484c1.29-.46,2.579-0.99,3.826-1.5,4.4-1.811,8.549-3.524,12.809-2.364a1.07,1.07,0,0,0,1.025-.262,1.093,1.093,0,0,0,.315-1.028,6.8,6.8,0,0,1,.127-1.5,1.728,1.728,0,0,1,.929-1.281,1.645,1.645,0,0,1,1.533.019,37.671,37.671,0,0,1,9.727,7.876l0.226,0.252-0.226.252q-0.156.174-.3,0.358l-0.152.191-0.236-.062c-6.279-1.666-13.225-.212-19.059,3.985A25.543,25.543,0,0,0,14.712,33.991a21.059,21.059,0,0,0,.6,6.758l0.062,0.236-0.19.153q-0.182.146-.354,0.3l-0.252.23-0.252-.231A37.87,37.87,0,0,1,6.517,31.632ZM23.54,52.484a5.909,5.909,0,0,1-7.478-.753,6.047,6.047,0,0,1-.332-8.091l0.384-.457,0.244,0.545a18.11,18.11,0,0,0,7.167,8.121l0.505,0.306Zm9.963-.122a16.6,16.6,0,0,1-11.92-4.8c-7.054-7.114-6.147-19.6,2.02-27.837a22.431,22.431,0,0,1,15.7-6.83h0a16.578,16.578,0,0,1,11.905,4.793c7.054,7.114,6.148,19.6-2.02,27.838A22.42,22.42,0,0,1,33.5,52.362ZM51.954,72.19A54.6,54.6,0,0,1,42.52,53.024l-0.079-.31,0.292-.128A26.176,26.176,0,0,0,56.178,39.016l0.127-.3,0.31,0.08a53.809,53.809,0,0,1,19.018,9.515,3.083,3.083,0,0,1,1.1,2.331c0.219,4.367-6.033,11.678-8.46,14.126-2.385,2.406-9.43,8.537-13.786,8.537-0.075,0-.149,0-0.224,0A3.042,3.042,0,0,1,51.954,72.19ZM49.2,85.616c1.909-3.814,3.63-7.155,5.115-9.927l0.1-.191,0.217-.007c6.09-.18,14.259-8.252,15.171-9.171,0.654-.659,6.451-6.6,8.437-12.149l0.349-.976,0.356,0.974a12.224,12.224,0,0,1,.566,5.768,1.093,1.093,0,0,0,.1.611c1.875,3.959,6.9,17.217,9.781,25.793l0.161,0.48-0.5.017a17.248,17.248,0,0,0-7.579,2.182l-0.4.232-0.149-.436c-1.653-4.886-4.168-11.824-6.114-16.872a1.072,1.072,0,0,0-.756-0.666,1.046,1.046,0,0,0-.969.241,18.575,18.575,0,0,1-8.4,4.379,1.082,1.082,0,0,0-.718.528c-2.3,4.084-5.3,9.986-6.88,13.141l-0.2.4L56.535,89.7a27.731,27.731,0,0,0-7.119-3.559L49.01,86ZM46.47,91.151c0.145-.3.66-1.359,1.412-2.878l0.144-.291,0.308,0.1a25.218,25.218,0,0,1,7.328,3.7l0.234,0.19-0.134.271c-0.537,1.083-1.007,2.043-1.383,2.815a4.376,4.376,0,0,1-5.893,2.034A4.46,4.46,0,0,1,46.47,91.151Z"/>
</svg>
